{
    "editor.fontFamily": "'Monaspace Neon', 'PT Mono', monospace",
    "editor.fontSize": 13,
    "markdown.preview.fontSize": 13,
    "editor.insertSpaces": false,
    "editor.suggestSelection": "first",
    "editor.autoClosingBrackets": "never",
    "editor.unicodeHighlight.ambiguousCharacters": false,
    "editor.unicodeHighlight.nonBasicASCII": false,
    "editor.unicodeHighlight.invisibleCharacters": true,
    "editor.acceptSuggestionOnCommitCharacter": false,
    "files.trimFinalNewlines": true,
    "workbench.colorTheme": "Flatland Monokai",
    "html.format.preserveNewLines": false,
    "update.mode": "none",
    "markdown.preview.fontFamily": "sans-serif",
    "redhat.telemetry.enabled": false,
    "java.codeGeneration.generateComments": true,
    "java.jdt.ls.java.home": "/usr/lib/jvm/default",
    "editor.acceptSuggestionOnEnter": "off",
    "vscodeGoogleTranslate.HoverTranslations": false,
    "diffEditor.ignoreTrimWhitespace": false,
    "terminal.external.linuxExec": "gnome-terminal",
    "terminal.integrated.fontFamily": "'Cascadia Mono PL', monospace, 'Noto Color Emoji'",
    "terminal.integrated.persistentSessionReviveProcess": "never",
    "terminal.integrated.cursorStyle": "line",
    "terminal.integrated.defaultProfile.linux": "fish",
    "terminal.integrated.detectLocale": "on",
    "terminal.integrated.enablePersistentSessions": false,
    "terminal.integrated.tabStopWidth": 4,
    "terminal.integrated.fontSize": 13,
    "codeium.enableConfig": {
        "*": true,
        "gleam": true,
        "just": true,
        "markdown": true
    },
    "diffEditor.maxComputationTime": 0,
    "files.simpleDialog.enable": true,
    "files.insertFinalNewline": true,
    "workbench.preferredDarkColorTheme": "Flatland Monokai",
    "window.autoDetectColorScheme": true,
    "workbench.preferredLightColorTheme": "Github Light Theme - Gray",
    "prettier.requireConfig": true,
    "htmlhint.options": {
        "doctype-first": false
    },
    "gleam.path": "/usr/bin/gleam-patched",
    "[gleam]": {
        "editor.formatOnSave": true
    }
}
